module signify-gzip

go 1.20

require (
	gitlab.com/michaeljohn/bcrypt_pbkdf v1.0.1
	golang.org/x/crypto v0.7.0
	golang.org/x/term v0.6.0
	lukechampine.com/blake3 v1.1.7
)

require (
	github.com/klauspost/cpuid/v2 v2.2.4 // indirect
	golang.org/x/sys v0.6.0 // indirect
)
